Presidential Platforms 1968-2020: A Text Analysis
…
sent_sentiments %>% 
  mutate(sen_number = (sen_number %/% agg) +1) %>% 
  group_by(sen_number, party, year) %>% 
  summarize(sen_number = unique(sen_number), sentence = paste(sentence, collapse = " "), `AFINN Mean` = mean(`AFINN Mean`)) %>% 
  ungroup() %>% 
  group_by(year) %>% 
  filter(`AFINN Mean` %in% range(`AFINN Mean`[year==year])) %>% 
  arrange(-abs(`AFINN Mean`)) %>% 
  dplyr::select(`AFINN Mean`, everything())

## `summarise()` regrouping output by 'sen_number', 'party' (override with `.groups` argument)

## # A tibble: 29 x 5
## # Groups:   year [14]
##    `AFINN Mean` sen_number party  year sentence                                 
##           <dbl>      <dbl> <chr> <dbl> <chr>                                    
##  1        -2.5          88 R      1996 worse vetoed ban partial birth abortions~
##  2         1.93         31 R      1984 encourage closer ties countries south am~
##  3         1.88         42 D      1968 support extension neighborhood centers s~
##  4         1.88        103 R      2000 support efforts ensure equitable partici~
##  5         1.85         98 R      2004 republicans congress strongly supported ~
##  6         1.8          93 R      1992 study prepared urban institute mandate r~
##  7         1.79         68 R      2008 support law prohibiting gambling interne~
##  8         1.77         28 R      1976 friendship african countries expressed s~
##  9         1.77         50 R      1976 relations united americas vital importan~
## 10        -1.75         95 D      1984 workers industries displaced unfair impo~
## # ... with 19 more rows
…
library(topicmodels)
library(tidytext)

p_dtm <- overall %>% mutate(across(c(party, year), as.factor)) %>% 
  group_by(party) %>% 
  add_count(word) %>% 
  cast_dtm(term = word, document = party, value = n)

topics_p <- LDA(p_dtm, k = 2)

topics_p %>% tidy() %>% 
  group_by(topic) %>% slice_max(n =20, order_by = beta)

## # A tibble: 40 x 3
## # Groups:   topic [2]
##    topic term         beta
##    <int> <chr>       <dbl>
##  1     1 american  0.00954
##  2     1 support   0.00895
##  3     1 health    0.00765
##  4     1 economic  0.00680
##  5     1 national  0.00668
##  6     1 security  0.00623
##  7     1 world     0.00598
##  8     1 care      0.00590
##  9     1 education 0.00558
## 10     1 united    0.00474
## # ... with 30 more rows

Now I treat each years platforms as a single text. I choose \(k\) of 13 rather than 14 because the Republicans had no platform in 2020. Differentiation is now clear; its not hard to guess what year contained reagan and soviet.

y_dtm <- overall %>% mutate(across(c(party, year), as.factor)) %>% 
  group_by(year) %>% 
  add_count(word) %>% 
  cast_dtm(term = word, document = year, value = n)

topics_y <- LDA(y_dtm, k = 14, control = list(seed = 54321))

topics_y %>% tidy() %>% 
  group_by(topic) %>% slice_max(n =20, order_by = beta)

## # A tibble: 281 x 3
## # Groups:   topic [14]
##    topic term          beta
##    <int> <chr>        <dbl>
##  1     1 government 0.00963
##  2     1 support    0.00797
##  3     1 federal    0.00762
##  4     1 policy     0.00625
##  5     1 programs   0.00615
##  6     1 national   0.00595
##  7     1 economic   0.00585
##  8     1 united     0.00540
##  9     1 american   0.00530
## 10     1 energy     0.00514
## # ... with 271 more rows
…
Which words were most consistent among topics? Not surprisingly, generic ones relating politics. American is among the top 20 words in all fourteen topics.

 topics_y %>% tidy(matrix="beta") %>% 
  group_by(topic) %>% 
  slice_max(n=20, order_by = beta) %>% 
  left_join(year_gamma, ., by = c("topic")) %>% 
  count(term, topic) %>% 
  count(term, wt = n) %>% 
  mutate(n = n/14) %>% 
  arrange(-n)

## # A tibble: 73 x 2
##    term           n
##    <chr>      <dbl>
##  1 american      14
##  2 people        13
##  3 support       13
##  4 government    12
##  5 federal       11
##  6 americans     10
##  7 national       9
##  8 care           8
##  9 economic       8
## 10 public         8
## # ... with 63 more rows
…
